{
	"websites": [{
			"domain": "Https://twitter.com/#!/MD_Prokhorov"
		},
		{
			"domain": "http://Google.co.uk"
		},
		{
			"domain": "http://Amazon.co.uk"
		},
		{
			"domain": "http://Bbc.co.uk"
		},
		{
			"domain": "http://Theguardian.com"
		},
		{
			"domain": "http://Ebay.co.uk"
		},
		{
			"domain": "http://Dailymail.co.uk"
		},
		{
			"domain": "http://Bet365.com"
		},
		{
			"domain": "http://Bbc.com/news"
		},
		{
			"domain": "http://Google.ie"
		},
		{
			"domain": "http://Telegraph.co.uk"
		},
		{
			"domain": "http://Asos.com"
		},
		{
			"domain": "http://Rt.com"
		},
		{
			"domain": "http://Independent.co.uk"
		},
		{
			"domain": "http://Edition.cnn.com"
		},
		{
			"domain": "http://Express.co.uk"
		},
		{
			"domain": "http://Espncricinfo.com"
		},
		{
			"domain": "http://Reuters.com"
		},
		{
			"domain": "http://Cambridge.org"
		},
		{
			"domain": "http://Hm.com"
		},
		{
			"domain": "http://Webex.com"
		},
		{
			"domain": "http://Premierleague.com"
		},
		{
			"domain": "http://Google.rs"
		},
		{
			"domain": "http://Mirror.co.uk"
		},
		{
			"domain": "http://Thesun.co.uk"
		},
		{
			"domain": "http://Cdiscount.com"
		},
		{
			"domain": "Https://my.screenname.aol.com/"
		},
		{
			"domain": "http://Skysports.com"
		},
		{
			"domain": "http://Bbc.com/sport"
		},
		{
			"domain": "http://Uk.search.yahoo.com"
		},
		{
			"domain": "http://Sky.com"
		},
		{
			"domain": "http://Rightmove.co.uk"
		},
		{
			"domain": "http://Ryanair.com"
		},
		{
			"domain": "Https://www.united.com/"
		},
		{
			"domain": "http://Gumtree.com"
		},
		{
			"domain": "http://Bbc.co.uk/programmes"
		},
		{
			"domain": "http://Metro.co.uk"
		},
		{
			"domain": "http://Dw.com"
		},
		{
			"domain": "http://Bbc.co.uk/weather/"
		},
		{
			"domain": "http://Bt.com"
		},
		{
			"domain": "http://Hsbc.co.uk"
		},
		{
			"domain": "http://Eset.com"
		},
		{
			"domain": "http://Skysports.com/football"
		},
		{
			"domain": "Https://uk.yahoo.com/"
		},
		{
			"domain": "http://Newsnow.co.uk"
		},
		{
			"domain": "http://Argos.co.uk"
		},
		{
			"domain": "http://Voyages-sncf.com"
		},
		{
			"domain": "Https://www.ft.com"
		},
		{
			"domain": "http://Thomann.de"
		},
		{
			"domain": "http://Oup.com"
		},
		{
			"domain": "http://Sap.com"
		},
		{
			"domain": "http://Santander.co.uk"
		},
		{
			"domain": "http://Trustedreviews.com"
		},
		{
			"domain": "http://Easyjet.com"
		},
		{
			"domain": "http://Economist.com"
		},
		{
			"domain": "http://Virginmedia.com"
		},
		{
			"domain": "http://Hotukdeals.com"
		},
		{
			"domain": "http://Tesco.com"
		},
		{
			"domain": "Https://www.here.com"
		},
		{
			"domain": "http://Uefa.com"
		},
		{
			"domain": "http://Indeed.co.uk"
		},
		{
			"domain": "http://Google.lu"
		},
		{
			"domain": "http://Dailystar.co.uk"
		},
		{
			"domain": "http://Who.int"
		},
		{
			"domain": "http://Britishcouncil.org"
		},
		{
			"domain": "http://Autotrader.co.uk"
		},
		{
			"domain": "http://Cosmopolitan.com"
		},
		{
			"domain": "http://Channel4.com"
		},
		{
			"domain": "http://Barclays.co.uk"
		},
		{
			"domain": "http://Aruba.it"
		},
		{
			"domain": "http://Mirror.co.uk/sport/"
		},
		{
			"domain": "http://News.sky.com "
		},
		{
			"domain": "http://Moneysavingexpert.com"
		},
		{
			"domain": "http://Zoopla.co.uk"
		},
		{
			"domain": "http://Independent.co.uk/arts-entertainment/"
		},
		{
			"domain": "http://Royalmail.com"
		},
		{
			"domain": "http://Euronews.com"
		},
		{
			"domain": "http://Britishairways.com"
		},
		{
			"domain": "http://Service-public.fr"
		},
		{
			"domain": "http://Ebay.ie"
		},
		{
			"domain": "http://Thetrainline.com"
		},
		{
			"domain": "http://Sportsdirect.com"
		},
		{
			"domain": "http://Voanews.com"
		},
		{
			"domain": "http://Nationwide.co.uk"
		},
		{
			"domain": "http://Macworld.co.uk"
		},
		{
			"domain": "http://Lloydsbank.com"
		},
		{
			"domain": "http://Lufthansa.com"
		},
		{
			"domain": "Https://www.nokia.com"
		},
		{
			"domain": "http://Natwest.com"
		},
		{
			"domain": "http://Johnlewis.com"
		},
		{
			"domain": "http://Companieshouse.gov.uk"
		},
		{
			"domain": "http://Independent.ie"
		},
		{
			"domain": "http://Bbc.co.uk/radio"
		},
		{
			"domain": "http://Siemens.com"
		},
		{
			"domain": "http://Nme.com"
		},
		{
			"domain": "http://Gsis.gr"
		},
		{
			"domain": "http://Itv.com"
		},
		{
			"domain": "http://Standard.co.uk"
		},
		{
			"domain": "http://Tfl.gov.uk"
		},
		{
			"domain": "http://National-lottery.co.uk"
		}
	]
}